{
	"code": 200,
	"currentTime": 1496375435903,
	"data": {
		"entry": {
			"arrivalsAndDepartures": [{
				"arrivalEnabled": true,
				"blockTripSequence": 3,
				"departureEnabled": true,
				"distanceFromStop": 3610.456085049751,
				"frequency": null,
				"lastUpdateTime": 1496375367000,
				"numberOfStopsAway": 7,
				"predicted": true,
				"predictedArrivalInterval": null,
				"predictedArrivalTime": 1496375858000,
				"predictedDepartureInterval": null,
				"predictedDepartureTime": 1496375858000,
				"routeId": "1_102615",
				"routeLongName": "E-Line Rapid Ride",
				"routeShortName": "E Line",
				"scheduledArrivalInterval": null,
				"scheduledArrivalTime": 1496375467000,
				"scheduledDepartureInterval": null,
				"scheduledDepartureTime": 1496375467000,
				"serviceDate": 1496300400000,
				"situationIds": [],
				"status": "default",
				"stopId": "1_7140",
				"stopSequence": 19,
				"totalStopsInTrip": 35,
				"tripHeadsign": "Downtown Seattle",
				"tripId": "1_33360095",
				"tripStatus": {
					"activeTripId": "1_33360095",
					"blockTripSequence": 3,
					"closestStop": "1_6990",
					"closestStopTimeOffset": 0,
					"distanceAlongTrip": 5584.103074497856,
					"frequency": null,
					"lastKnownDistanceAlongTrip": 0,
					"lastKnownLocation": {
						"lat": 47.72643280029297,
						"lon": -122.34500885009766
					},
					"lastKnownOrientation": 0,
					"lastLocationUpdateTime": 1496375367000,
					"lastUpdateTime": 1496375367000,
					"nextStop": "1_6990",
					"nextStopTimeOffset": 0,
					"orientation": 270,
					"phase": "in_progress",
					"position": {
						"lat": 47.726429,
						"lon": -122.345016
					},
					"predicted": true,
					"scheduleDeviation": 391,
					"scheduledDistanceAlongTrip": 5584.103074497856,
					"serviceDate": 1496300400000,
					"situationIds": [],
					"status": "SCHEDULED",
					"totalDistanceAlongTrip": 20235.324554223687,
					"vehicleId": "1_6060"
				},
				"vehicleId": "1_6060"
			}, {
				"arrivalEnabled": true,
				"blockTripSequence": 7,
				"departureEnabled": true,
				"distanceFromStop": 8130.880940085481,
				"frequency": null,
				"lastUpdateTime": 1496375308000,
				"numberOfStopsAway": 16,
				"predicted": true,
				"predictedArrivalInterval": null,
				"predictedArrivalTime": 1496376427000,
				"predictedDepartureInterval": null,
				"predictedDepartureTime": 1496376427000,
				"routeId": "1_102615",
				"routeLongName": "E-Line Rapid Ride",
				"routeShortName": "E Line",
				"scheduledArrivalInterval": null,
				"scheduledArrivalTime": 1496376367000,
				"scheduledDepartureInterval": null,
				"scheduledDepartureTime": 1496376367000,
				"serviceDate": 1496300400000,
				"situationIds": [],
				"status": "default",
				"stopId": "1_7140",
				"stopSequence": 19,
				"totalStopsInTrip": 35,
				"tripHeadsign": "Downtown Seattle",
				"tripId": "1_33360093",
				"tripStatus": {
					"activeTripId": "1_33360093",
					"blockTripSequence": 7,
					"closestStop": "1_75730",
					"closestStopTimeOffset": -1,
					"distanceAlongTrip": 1063.6782194621337,
					"frequency": null,
					"lastKnownDistanceAlongTrip": 0,
					"lastKnownLocation": {
						"lat": 47.767127990722656,
						"lon": -122.34590148925781
					},
					"lastKnownOrientation": 0,
					"lastLocationUpdateTime": 1496375308000,
					"lastUpdateTime": 1496375308000,
					"nextStop": "1_75740",
					"nextStopTimeOffset": 71,
					"orientation": 271.287328941936,
					"phase": "in_progress",
					"position": {
						"lat": 47.76706423749986,
						"lon": -122.3459074772472
					},
					"predicted": true,
					"scheduleDeviation": 60,
					"scheduledDistanceAlongTrip": 1063.6782194621337,
					"serviceDate": 1496300400000,
					"situationIds": [],
					"status": "SCHEDULED",
					"totalDistanceAlongTrip": 20235.324554223687,
					"vehicleId": "1_6116"
				},
				"vehicleId": "1_6116"
			}, {
				"arrivalEnabled": true,
				"blockTripSequence": 5,
				"departureEnabled": true,
				"distanceFromStop": 12029.556244802647,
				"frequency": null,
				"lastUpdateTime": 1496375381000,
				"numberOfStopsAway": 25,
				"predicted": true,
				"predictedArrivalInterval": null,
				"predictedArrivalTime": 1496377267000,
				"predictedDepartureInterval": null,
				"predictedDepartureTime": 1496377267000,
				"routeId": "1_102615",
				"routeLongName": "E-Line Rapid Ride",
				"routeShortName": "E Line",
				"scheduledArrivalInterval": null,
				"scheduledArrivalTime": 1496377267000,
				"scheduledDepartureInterval": null,
				"scheduledDepartureTime": 1496377267000,
				"serviceDate": 1496300400000,
				"situationIds": [],
				"status": "default",
				"stopId": "1_7140",
				"stopSequence": 19,
				"totalStopsInTrip": 35,
				"tripHeadsign": "Downtown Seattle",
				"tripId": "1_33360127",
				"tripStatus": {
					"activeTripId": "1_33360006",
					"blockTripSequence": 4,
					"closestStop": "1_75870",
					"closestStopTimeOffset": -9,
					"distanceAlongTrip": 18063.409779910246,
					"frequency": null,
					"lastKnownDistanceAlongTrip": 0,
					"lastKnownLocation": {
						"lat": 47.75308609008789,
						"lon": -122.34558868408203
					},
					"lastKnownOrientation": 0,
					"lastLocationUpdateTime": 1496375381000,
					"lastUpdateTime": 1496375381000,
					"nextStop": "1_75881",
					"nextStopTimeOffset": 41,
					"orientation": 91.1547979687552,
					"phase": "in_progress",
					"position": {
						"lat": 47.75363322559357,
						"lon": -122.34560795809698
					},
					"predicted": true,
					"scheduleDeviation": 469,
					"scheduledDistanceAlongTrip": 18063.409779910246,
					"serviceDate": 1496300400000,
					"situationIds": [],
					"status": "SCHEDULED",
					"totalDistanceAlongTrip": 20774.22807006565,
					"vehicleId": "1_6073"
				},
				"vehicleId": "1_6073"
			}],
			"nearbyStopIds": ["1_7750"],
			"situationIds": [],
			"stopId": "1_7140"
		},
		"references": {
			"agencies": [{
				"disclaimer": "",
				"email": "",
				"fareUrl": "",
				"id": "1",
				"lang": "EN",
				"name": "Metro Transit",
				"phone": "206-553-3000",
				"privateService": false,
				"timezone": "America/Los_Angeles",
				"url": "http://metro.kingcounty.gov"
			}],
			"routes": [{
				"agencyId": "1",
				"color": "",
				"description": "Aurora Village to Downtown Seattle",
				"id": "1_102615",
				"longName": "E-Line Rapid Ride",
				"shortName": "E Line",
				"textColor": "",
				"type": 3,
				"url": "http://metro.kingcounty.gov/travel-options/bus/rapidride/e-line/"
			}, {
				"agencyId": "1",
				"color": "",
				"description": "Aurora Village TC to Richmond Beach to Downtown Se",
				"id": "1_100175",
				"longName": "",
				"shortName": "301",
				"textColor": "",
				"type": 3,
				"url": "http://metro.kingcounty.gov/schedules/301/n0.html"
			}, {
				"agencyId": "1",
				"color": "",
				"description": "Shoreline - NTC - First Hill",
				"id": "1_100177",
				"longName": "",
				"shortName": "303",
				"textColor": "",
				"type": 3,
				"url": "http://metro.kingcounty.gov/schedules/303/n0.html"
			}, {
				"agencyId": "1",
				"color": "",
				"description": "Shoreline P&R to Renton TC",
				"id": "1_100201",
				"longName": "",
				"shortName": "342",
				"textColor": "",
				"type": 3,
				"url": "http://metro.kingcounty.gov/schedules/342/n0.html"
			}, {
				"agencyId": "1",
				"color": "",
				"description": "Aurora Village TC to University District",
				"id": "1_100215",
				"longName": "",
				"shortName": "373",
				"textColor": "",
				"type": 3,
				"url": "http://metro.kingcounty.gov/schedules/373/n0.html"
			}],
			"situations": [],
			"stops": [{
				"code": "7140",
				"direction": "S",
				"id": "1_7140",
				"lat": 47.693962,
				"locationType": 0,
				"lon": -122.344666,
				"name": "Aurora Ave N & N 90th St",
				"routeIds": ["1_102615"],
				"wheelchairBoarding": "UNKNOWN"
			}, {
				"code": "6990",
				"direction": "S",
				"id": "1_6990",
				"lat": 47.726429,
				"locationType": 0,
				"lon": -122.345116,
				"name": "Aurora Ave N & N 135th St",
				"routeIds": ["1_102615"],
				"wheelchairBoarding": "UNKNOWN"
			}, {
				"code": "75730",
				"direction": "S",
				"id": "1_75730",
				"lat": 47.767128,
				"locationType": 0,
				"lon": -122.346001,
				"name": "Aurora Ave N & N 192nd St",
				"routeIds": ["1_100175", "1_100177", "1_100201", "1_100215", "1_102615"],
				"wheelchairBoarding": "UNKNOWN"
			}, {
				"code": "75740",
				"direction": "S",
				"id": "1_75740",
				"lat": 47.762474,
				"locationType": 0,
				"lon": -122.346115,
				"name": "Aurora Ave N & N 185th St",
				"routeIds": ["1_100175", "1_102615"],
				"wheelchairBoarding": "UNKNOWN"
			}, {
				"code": "75870",
				"direction": "N",
				"id": "1_75870",
				"lat": 47.75304,
				"locationType": 0,
				"lon": -122.345482,
				"name": "Aurora Ave N & N 170th St",
				"routeIds": ["1_102615"],
				"wheelchairBoarding": "UNKNOWN"
			}, {
				"code": "75881",
				"direction": "N",
				"id": "1_75881",
				"lat": 47.756348,
				"locationType": 0,
				"lon": -122.345703,
				"name": "Aurora Ave N & N 175th St",
				"routeIds": ["1_100175", "1_102615"],
				"wheelchairBoarding": "UNKNOWN"
			}, {
				"code": "7750",
				"direction": "N",
				"id": "1_7750",
				"lat": 47.694691,
				"locationType": 0,
				"lon": -122.344475,
				"name": "Aurora Ave N & N 91st St",
				"routeIds": ["1_102615"],
				"wheelchairBoarding": "UNKNOWN"
			}],
			"trips": [{
				"blockId": "1_4448163",
				"directionId": "1",
				"id": "1_33360095",
				"routeId": "1_102615",
				"routeShortName": "",
				"serviceId": "1_110802",
				"shapeId": "1_20675007",
				"timeZone": "",
				"tripHeadsign": "Downtown Seattle",
				"tripShortName": "LOCAL"
			}, {
				"blockId": "1_4448159",
				"directionId": "1",
				"id": "1_33360093",
				"routeId": "1_102615",
				"routeShortName": "",
				"serviceId": "1_110802",
				"shapeId": "1_20675007",
				"timeZone": "",
				"tripHeadsign": "Downtown Seattle",
				"tripShortName": "LOCAL"
			}, {
				"blockId": "1_4448160",
				"directionId": "1",
				"id": "1_33360127",
				"routeId": "1_102615",
				"routeShortName": "",
				"serviceId": "1_110802",
				"shapeId": "1_20675007",
				"timeZone": "",
				"tripHeadsign": "Downtown Seattle",
				"tripShortName": "LOCAL"
			}, {
				"blockId": "1_4448160",
				"directionId": "0",
				"id": "1_33360006",
				"routeId": "1_102615",
				"routeShortName": "",
				"serviceId": "1_110802",
				"shapeId": "1_11675018",
				"timeZone": "",
				"tripHeadsign": "Aurora Village Transit Center",
				"tripShortName": "LOCAL"
			}]
		}
	},
	"text": "OK",
	"version": 2
}
